{
    "fluentMethods": true,
    "relationships": [],
    "fields": [
        {
            "fieldName": "userID",
            "fieldType": "Integer",
            "fieldValidateRules": [
                "max",
                "required"
            ],
            "fieldValidateRulesMax": 11
        },
        {
            "fieldName": "providerID",
            "fieldType": "Integer",
            "fieldValidateRules": [
                "max",
                "required"
            ],
            "fieldValidateRulesMax": 11
        },
        {
            "fieldName": "getNotifications",
            "fieldType": "Integer",
            "fieldValidateRules": [
                "max",
                "required"
            ],
            "fieldValidateRulesMax": 2
        },
        {
            "fieldName": "notificationType",
            "fieldType": "Integer",
            "fieldValidateRules": [
                "max",
                "required"
            ],
            "fieldValidateRulesMax": 11
        },
        {
            "fieldName": "interestType",
            "fieldType": "Integer",
            "fieldValidateRules": [
                "max",
                "required"
            ],
            "fieldValidateRulesMax": 11
        },
        {
            "fieldName": "inactive",
            "fieldType": "Integer",
            "fieldValidateRules": [
                "max",
                "required"
            ],
            "fieldValidateRulesMax": 2
        },
        {
            "fieldName": "createdDate",
            "fieldType": "LocalDate",
            "fieldValidateRules": [
                "required"
            ]
        },
        {
            "fieldName": "updatedDate",
            "fieldType": "Instant"
        }
    ],
    "changelogDate": "20170902022124",
    "entityTableName": "mp_user_provider",
    "dto": "no",
    "pagination": "infinite-scroll",
    "service": "no"
}